P_C/simulation/qsim/ParteC.msim.vcd
$comment
	File created using the following command:
		vcd file ParteC.msim.vcd -direction
$end
$date
	Tue Nov 22 13:33:10 2022
$end
$version
	ModelSim Version 10.1d
$end
$timescale
	1ps
$end
$scope module Esquematico_C_vlg_vec_tst $end
$var reg 1 ! A0 $end
$var reg 1 " A1 $end
$var reg 1 # A2 $end
$var reg 1 $ A3 $end
$var reg 1 % B0 $end
$var reg 1 & B1 $end
$var reg 1 ' B2 $end
$var reg 1 ( B3 $end
$var reg 1 ) Cin $end
$var reg 1 * CLK $end
$var wire 1 + Carry $end
$var wire 1 , F0 $end
$var wire 1 - F1 $end
$var wire 1 . F2 $end
$var wire 1 / F3 $end
$var wire 1 0 Sign $end
$var wire 1 1 V $end
$var wire 1 2 Z $end
$var wire 1 3 sampler $end
$scope module i1 $end
$var wire 1 4 gnd $end
$var wire 1 5 vcc $end
$var wire 1 6 unknown $end
$var tri1 1 7 devclrn $end
$var tri1 1 8 devpor $end
$var tri1 1 9 devoe $end
$var wire 1 : inst18|Q~q $end
$var wire 1 ; inst|Cout~1_combout $end
$var wire 1 < Cin~input_o $end
$var wire 1 = B3~input_o $end
$var wire 1 > V~output_o $end
$var wire 1 ? Z~output_o $end
$var wire 1 @ Sign~output_o $end
$var wire 1 A Carry~output_o $end
$var wire 1 B F0~output_o $end
$var wire 1 C F1~output_o $end
$var wire 1 D F2~output_o $end
$var wire 1 E F3~output_o $end
$var wire 1 F CLK~input_o $end
$var wire 1 G B2~input_o $end
$var wire 1 H inst19|Q~feeder_combout $end
$var wire 1 I inst19|Q~q $end
$var wire 1 J inst4|Cout~0_combout $end
$var wire 1 K A3~input_o $end
$var wire 1 L inst22|Q~feeder_combout $end
$var wire 1 M inst22|Q~q $end
$var wire 1 N B1~input_o $end
$var wire 1 O inst16|Q~q $end
$var wire 1 P A1~input_o $end
$var wire 1 Q inst21|Q~q $end
$var wire 1 R B0~input_o $end
$var wire 1 S inst17|Q~q $end
$var wire 1 T A0~input_o $end
$var wire 1 U inst20|Q~feeder_combout $end
$var wire 1 V inst20|Q~q $end
$var wire 1 W inst|Cout~0_combout $end
$var wire 1 X inst3|Cout~0_combout $end
$var wire 1 Y inst4|Cout~1_combout $end
$var wire 1 Z inst7~0_combout $end
$var wire 1 [ inst15|Q~q $end
$var wire 1 \ inst3|f~combout $end
$var wire 1 ] inst5|f~combout $end
$var wire 1 ^ A2~input_o $end
$var wire 1 _ inst23|Q~q $end
$var wire 1 ` inst4|f~0_combout $end
$var wire 1 a inst6~combout $end
$var wire 1 b inst14|Q~q $end
$var wire 1 c inst10|Q~q $end
$var wire 1 d inst5|Cout~0_combout $end
$var wire 1 e inst2|Q~q $end
$var wire 1 f inst|f~0_combout $end
$var wire 1 g inst24|Q~q $end
$var wire 1 h inst25|Q~q $end
$var wire 1 i inst26|Q~q $end
$var wire 1 j inst27|Q~q $end
$upscope $end
$upscope $end
$enddefinitions $end
#0
$dumpvars
1!
1"
1#
0$
1%
1&
1'
0(
0)
0*
0+
0,
0-
0.
0/
00
01
02
x3
04
15
x6
17
18
19
0:
0;
0<
0=
0>
0?
0@
0A
0B
0C
0D
0E
0F
1G
1H
0I
0J
0K
0L
0M
1N
0O
1P
0Q
1R
0S
1T
1U
0V
0W
0X
0Y
0Z
0[
0\
0]
1^
0_
0`
1a
0b
0c
0d
0e
0f
0g
0h
0i
0j
$end
#5000
1*
1F
03
1_
1V
1S
1Q
1O
1I
1b
1J
1W
1X
1?
12
1]
1Z
1\
1`
1Y
0a
#10000
0*
0F
13
#15000
1*
1F
03
1j
1i
1h
1c
0b
1[
1E
1D
1C
1@
0?
1>
1/
1.
1-
10
02
11
#20000
0*
0F
13
#25000
1*
1F
03
#30000
0*
0F
13
#35000
1*
1F
03
#40000
0*
0F
13
#45000
1*
1F
03
#50000
0*
0F
13
#55000
1*
1F
03
#60000
0*
0F
13
#65000
1*
1F
03
#70000
0*
0F
13
#75000
1*
1F
03
#80000
0*
0F
13
#85000
1*
1F
03
#90000
0*
0F
13
#95000
1*
1F
03
#100000
0*
0F
13
#105000
1*
1F
03
#110000
0*
0F
13
#115000
1*
1F
03
#120000
0*
0F
13
#125000
1*
1F
03
#130000
0*
0F
13
#135000
1*
1F
03
#140000
0*
0F
13
#145000
1*
1F
03
#150000
0*
0F
13
#155000
1*
1F
03
#160000
0*
0F
13
#165000
1*
1F
03
#170000
0*
0F
13
#175000
1*
1F
03
#180000
0*
0F
13
#185000
1*
1F
03
#190000
0*
0F
13
#195000
1*
1F
03
#200000
0*
0F
13
#205000
1*
1F
03
#210000
0*
0F
13
#215000
1*
1F
03
#220000
0*
0F
13
#225000
1*
1F
03
#230000
0*
0F
13
#235000
1*
1F
03
#240000
0*
0F
13
#245000
1*
1F
03
#250000
0*
0F
13
#255000
1*
1F
03
#260000
0*
0F
13
#265000
1*
1F
03
#270000
0*
0F
13
#275000
1*
1F
03
#280000
0*
0F
13
#285000
1*
1F
03
#290000
0*
0F
13
#295000
1*
1F
03
#300000
0*
0F
13
#305000
1*
1F
03
#310000
0*
0F
13
#315000
1*
1F
03
#320000
0*
0F
13
#325000
1*
1F
03
#330000
0*
0F
13
#335000
1*
1F
03
#340000
0*
0F
13
#345000
1*
1F
03
#350000
0*
0F
13
#355000
1*
1F
03
#360000
0*
0F
13
#365000
1*
1F
03
#370000
0*
0F
13
#375000
1*
1F
03
#380000
0*
0F
13
#385000
1*
1F
03
#390000
0*
0F
13
#395000
1*
1F
03
#400000
0*
0F
13
#405000
1*
1F
03
#410000
0*
0F
13
#415000
1*
1F
03
#420000
0*
0F
13
#425000
1*
1F
03
#430000
0*
0F
13
#435000
1*
1F
03
#440000
0*
0F
13
#445000
1*
1F
03
#450000
0*
0F
13
#455000
1*
1F
03
#460000
0*
0F
13
#465000
1*
1F
03
#470000
0*
0F
13
#475000
1*
1F
03
#480000
0*
0F
13
#485000
1*
1F
03
#490000
0*
0F
13
#495000
1*
1F
03
#500000
0*
0F
13
#505000
1*
1F
03
#510000
0*
0F
13
#515000
1*
1F
03
#520000
0*
0F
13
#525000
1*
1F
03
#530000
0*
0F
13
#535000
1*
1F
03
#540000
0*
0F
13
#545000
1*
1F
03
#550000
0*
0F
13
#555000
1*
1F
03
#560000
0*
0F
13
#565000
1*
1F
03
#570000
0*
0F
13
#575000
1*
1F
03
#580000
0*
0F
13
#585000
1*
1F
03
#590000
0*
0F
13
#595000
1*
1F
03
#600000
0*
0F
13
#605000
1*
1F
03
#610000
0*
0F
13
#615000
1*
1F
03
#620000
0*
0F
13
#625000
1*
1F
03
#630000
0*
0F
13
#635000
1*
1F
03
#640000
0*
0F
13
#645000
1*
1F
03
#650000
0*
0F
13
#655000
1*
1F
03
#660000
0*
0F
13
#665000
1*
1F
03
#670000
0*
0F
13
#675000
1*
1F
03
#680000
0*
0F
13
#685000
1*
1F
03
#690000
0*
0F
13
#695000
1*
1F
03
#700000
0*
0F
13
#705000
1*
1F
03
#710000
0*
0F
13
#715000
1*
1F
03
#720000
0*
0F
13
#725000
1*
1F
03
#730000
0*
0F
13
#735000
1*
1F
03
#740000
0*
0F
13
#745000
1*
1F
03
#750000
0*
0F
13
#755000
1*
1F
03
#760000
0*
0F
13
#765000
1*
1F
03
#770000
0*
0F
13
#775000
1*
1F
03
#780000
0*
0F
13
#785000
1*
1F
03
#790000
0*
0F
13
#795000
1*
1F
03
#800000
0*
0F
13
#805000
1*
1F
03
#810000
0*
0F
13
#815000
1*
1F
03
#820000
0*
0F
13
#825000
1*
1F
03
#830000
0*
0F
13
#835000
1*
1F
03
#840000
0*
0F
13
#845000
1*
1F
03
#850000
0*
0F
13
#855000
1*
1F
03
#860000
0*
0F
13
#865000
1*
1F
03
#870000
0*
0F
13
#875000
1*
1F
03
#880000
0*
0F
13
#885000
1*
1F
03
#890000
0*
0F
13
#895000
1*
1F
03
#900000
0*
0F
13
#905000
1*
1F
03
#910000
0*
0F
13
#915000
1*
1F
03
#920000
0*
0F
13
#925000
1*
1F
03
#930000
0*
0F
13
#935000
1*
1F
03
#940000
0*
0F
13
#945000
1*
1F
03
#950000
0*
0F
13
#955000
1*
1F
03
#960000
0*
0F
13
#965000
1*
1F
03
#970000
0*
0F
13
#975000
1*
1F
03
#980000
0*
0F
13
#985000
1*
1F
03
#990000
0*
0F
13
#995000
1*
1F
03
