P_B/simulation/qsim/ParteB_FA.msim.vcd
$comment
	File created using the following command:
		vcd file ParteB_FA.msim.vcd -direction
$end
$date
	Wed Nov 16 20:01:03 2022
$end
$version
	ModelSim Version 10.1d
$end
$timescale
	1ps
$end
$scope module Full_Adder_vlg_vec_tst $end
$var reg 1 ! A $end
$var reg 1 " B $end
$var reg 1 # Cin $end
$var reg 1 $ CLK $end
$var wire 1 % Cout $end
$var wire 1 & f $end
$var wire 1 ' sampler $end
$scope module i1 $end
$var wire 1 ( gnd $end
$var wire 1 ) vcc $end
$var wire 1 * unknown $end
$var tri1 1 + devclrn $end
$var tri1 1 , devpor $end
$var tri1 1 - devoe $end
$var wire 1 . f~output_o $end
$var wire 1 / Cout~output_o $end
$var wire 1 0 CLK~input_o $end
$var wire 1 1 CLK~inputclkctrl_outclk $end
$var wire 1 2 Cin~input_o $end
$var wire 1 3 D3|Q~feeder_combout $end
$var wire 1 4 D3|Q~q $end
$var wire 1 5 B~input_o $end
$var wire 1 6 D2|Q~feeder_combout $end
$var wire 1 7 D2|Q~q $end
$var wire 1 8 z~0_combout $end
$var wire 1 9 D5|Q~q $end
$var wire 1 : A~input_o $end
$var wire 1 ; D1|Q~feeder_combout $end
$var wire 1 < D1|Q~q $end
$var wire 1 = co~0_combout $end
$var wire 1 > co~combout $end
$var wire 1 ? D4|Q~q $end
$upscope $end
$upscope $end
$enddefinitions $end
#0
$dumpvars
0!
1"
0#
0$
0%
0&
x'
0(
1)
x*
1+
1,
1-
0.
0/
00
01
02
03
04
15
16
07
08
09
0:
0;
0<
0=
0>
0?
$end
#40000
1!
1$
1:
10
11
0'
1;
17
18
#80000
0$
00
01
1'
#120000
0"
0!
1$
05
0:
10
11
0'
06
0;
1<
19
1=
08
1.
1&
1>
#160000
1"
0$
15
00
01
1'
16
#200000
0"
1$
05
10
11
0'
06
0<
1?
09
0=
18
1/
0.
1%
0&
0>
#240000
1"
0$
15
00
01
1'
16
#280000
1!
1$
1:
10
11
0'
1;
0?
19
0/
1.
0%
1&
#320000
0$
00
01
1'
#360000
0"
1$
05
10
11
0'
06
1<
1=
08
1>
#400000
0$
00
01
1'
#440000
0!
1"
1$
0:
15
10
11
0'
0;
16
07
1?
09
0=
18
1/
0.
1%
0&
0>
#480000
1!
0"
0$
1:
05
00
01
1'
1;
06
#520000
1"
1$
15
10
11
0'
16
0?
19
0/
1.
0%
1&
#560000
0$
00
01
1'
#600000
0"
1$
05
10
11
0'
06
17
1=
08
1>
#640000
1"
0$
15
00
01
1'
16
#680000
0!
0"
1$
0:
05
10
11
0'
0;
06
1?
09
1/
0.
1%
0&
#720000
1"
0$
15
00
01
1'
16
#760000
1!
0"
1$
1:
05
10
11
0'
1;
06
0<
0=
18
0>
#800000
0!
0$
0:
00
01
1'
0;
#840000
1"
1$
15
10
11
0'
16
07
0?
19
08
0/
1.
0%
1&
#880000
0"
0$
05
00
01
1'
06
#920000
1!
1"
1$
1:
15
10
11
0'
1;
16
09
0.
0&
#960000
0$
00
01
1'
