P_A/simulation/qsim/ParteA.msim.vcd
$comment
	File created using the following command:
		vcd file ParteA.msim.vcd -direction
$end
$date
	Wed Nov 16 16:42:03 2022
$end
$version
	ModelSim Version 10.1d
$end
$timescale
	1ps
$end
$scope module ParteA_NOR_vlg_vec_tst $end
$var reg 1 ! sw1 $end
$var reg 1 " sw2 $end
$var wire 1 # LED $end
$var wire 1 $ sampler $end
$scope module i1 $end
$var wire 1 % gnd $end
$var wire 1 & vcc $end
$var wire 1 ' unknown $end
$var tri1 1 ( devclrn $end
$var tri1 1 ) devpor $end
$var tri1 1 * devoe $end
$var wire 1 + LED~output_o $end
$var wire 1 , sw1~input_o $end
$var wire 1 - sw2~input_o $end
$var wire 1 . LED~0_combout $end
$upscope $end
$upscope $end
$enddefinitions $end
#0
$dumpvars
0!
1"
x#
x$
0%
1&
x'
1(
1)
1*
x+
0,
1-
x.
$end
#3463
1.
#6174
0+
0#
#20000
1!
0$
#20786
1,
#30000
0!
1$
#30893
0,
#40000
0"
1!
0$
#40786
1,
#40873
0-
#50000
0!
1$
#50893
0,
#55199
0.
#57841
1+
1#
#60000
1!
0$
#60786
1,
#64787
1.
#67498
0+
0#
#80000
1"
0!
1$
#80766
1-
#80893
0,
#90000
1!
0$
#90786
1,
#100000
0"
0!
1$
#100873
0-
#100893
0,
#105199
0.
#107841
1+
1#
#110000
1"
0$
#110766
1-
#114229
1.
#116940
0+
0#
#120000
1!
0"
1$
#120786
1,
#120873
0-
#130000
0!
0$
#130893
0,
#135199
0.
#137841
1+
1#
#140000
1!
1$
#140786
1,
#144787
1.
#147498
0+
0#
#160000
1"
0$
#160766
1-
#170000
0!
1$
#170893
0,
#190000
0"
1!
0$
#190786
1,
#190873
0-
#200000
0!
1$
#200893
0,
#205199
0.
#207841
1+
1#
#210000
1!
0$
#210786
1,
#214787
1.
#217498
0+
0#
#240000
1"
1$
#240766
1-
#260000
0"
0$
#260873
0-
#270000
0!
1"
1$
#270766
1-
#270893
0,
#280000
1!
0$
#280786
1,
#290000
0"
0!
1$
#290873
0-
#290893
0,
#295199
0.
#297841
1+
1#
#300000
1!
0$
#300786
1,
#304787
1.
#307498
0+
0#
#310000
1"
0!
1$
#310766
1-
#310893
0,
#320000
1!
0$
#320786
1,
#330000
0"
1$
#330873
0-
#340000
1"
0$
#340766
1-
#350000
0"
1$
#350873
0-
#370000
0!
1"
0$
#370766
1-
#370893
0,
#390000
1!
1$
#390786
1,
#400000
0"
0$
#400873
0-
#410000
0!
1"
1$
#410766
1-
#410893
0,
#430000
0"
0$
#430873
0-
#434558
0.
#437200
1+
1#
#440000
1!
1"
1$
#440766
1-
#440786
1,
#444229
1.
#446940
0+
0#
#460000
0!
0$
#460893
0,
#470000
0"
1$
#470873
0-
#474558
0.
#477200
1+
1#
#480000
1!
0$
#480786
1,
#484787
1.
#487498
0+
0#
#500000
0!
1$
#500893
0,
#505199
0.
#507841
1+
1#
#510000
1"
0$
#510766
1-
#514229
1.
#516940
0+
0#
#520000
1!
1$
#520786
1,
#530000
0"
0!
0$
#530873
0-
#530893
0,
#535199
0.
#537841
1+
1#
#540000
1"
1$
#540766
1-
#544229
1.
#546940
0+
0#
#550000
1!
0"
0$
#550786
1,
#550873
0-
#560000
1"
1$
#560766
1-
#570000
0"
0$
#570873
0-
#580000
1"
1$
#580766
1-
#590000
0!
0$
#590893
0,
#600000
1!
1$
#600786
1,
#610000
0"
0!
0$
#610873
0-
#610893
0,
#615199
0.
#617841
1+
1#
#640000
1!
1$
#640786
1,
#644787
1.
#647498
0+
0#
#650000
1"
0!
0$
#650766
1-
#650893
0,
#660000
0"
1!
1$
#660786
1,
#660873
0-
#670000
1"
0$
#670766
1-
#690000
0"
1$
#690873
0-
#700000
0!
1"
0$
#700766
1-
#700893
0,
#710000
0"
1$
#710873
0-
#714558
0.
#717200
1+
1#
#720000
1"
0$
#720766
1-
#724229
1.
#726940
0+
0#
#730000
0"
1$
#730873
0-
#734558
0.
#737200
1+
1#
#740000
1!
1"
0$
#740766
1-
#740786
1,
#744229
1.
#746940
0+
0#
#750000
0!
0"
1$
#750873
0-
#750893
0,
#755199
0.
#757841
1+
1#
#780000
1"
0$
#780766
1-
#784229
1.
#786940
0+
0#
#790000
1!
1$
#790786
1,
#800000
0"
0!
0$
#800873
0-
#800893
0,
#805199
0.
#807841
1+
1#
#810000
1"
1$
#810766
1-
#814229
1.
#816940
0+
0#
#820000
0"
0$
#820873
0-
#824558
0.
#827200
1+
1#
#840000
1"
1$
#840766
1-
#844229
1.
#846940
0+
0#
#850000
1!
0"
0$
#850786
1,
#850873
0-
#860000
0!
1$
#860893
0,
#865199
0.
#867841
1+
1#
#870000
1!
0$
#870786
1,
#874787
1.
#877498
0+
0#
#880000
0!
1$
#880893
0,
#885199
0.
#887841
1+
1#
#900000
1!
0$
#900786
1,
#904787
1.
#907498
0+
0#
#910000
1"
0!
1$
#910766
1-
#910893
0,
#920000
0"
1!
0$
#920786
1,
#920873
0-
#960000
1"
0!
1$
#960766
1-
#960893
0,
#970000
1!
0$
#970786
1,
#990000
0"
0!
1$
#990873
0-
#990893
0,
#995199
0.
#997841
1+
1#
